<svg width="32" height="32" viewBox="0 0 32 32" xmlns="http://www.w3.org/2000/svg">
  <g clip-path="url(#clip0)">
    <path d="M25.3333 11.232V9.33333C25.3333 6.85798 24.35 4.48401 22.5996 2.73367C20.8493 0.983331 18.4753 0 16 0C13.5246 0 11.1506 0.983331 9.4003 2.73367C7.64996 4.48401 6.66663 6.85798 6.66663 9.33333V11.232C5.47911 11.7503 4.46835 12.6034 3.75796 13.6869C3.04757 14.7705 2.66833 16.0376 2.66663 17.3333V25.3333C2.66874 27.1008 3.3718 28.7953 4.62159 30.045C5.87137 31.2948 7.56583 31.9979 9.33329 32H22.6666C24.4341 31.9979 26.1286 31.2948 27.3783 30.045C28.6281 28.7953 29.3312 27.1008 29.3333 25.3333V17.3333C29.3316 16.0376 28.9524 14.7705 28.242 13.6869C27.5316 12.6034 26.5208 11.7503 25.3333 11.232ZM9.33329 9.33333C9.33329 7.56522 10.0357 5.86953 11.2859 4.61929C12.5362 3.36905 14.2318 2.66667 16 2.66667C17.7681 2.66667 19.4638 3.36905 20.714 4.61929C21.9642 5.86953 22.6666 7.56522 22.6666 9.33333V10.6667H9.33329V9.33333ZM26.6666 25.3333C26.6666 26.3942 26.2452 27.4116 25.4951 28.1618C24.7449 28.9119 23.7275 29.3333 22.6666 29.3333H9.33329C8.27243 29.3333 7.25501 28.9119 6.50487 28.1618C5.75472 27.4116 5.33329 26.3942 5.33329 25.3333V17.3333C5.33329 16.2725 5.75472 15.2551 6.50487 14.5049C7.25501 13.7548 8.27243 13.3333 9.33329 13.3333H22.6666C23.7275 13.3333 24.7449 13.7548 25.4951 14.5049C26.2452 15.2551 26.6666 16.2725 26.6666 17.3333V25.3333Z" fill="url(#paint_linear)"/>
    <path d="M16 18.6667C15.6463 18.6667 15.3072 18.8072 15.0572 19.0572C14.8071 19.3073 14.6666 19.6464 14.6666 20V22.6667C14.6666 23.0203 14.8071 23.3594 15.0572 23.6095C15.3072 23.8595 15.6463 24 16 24C16.3536 24 16.6927 23.8595 16.9428 23.6095C17.1928 23.3594 17.3333 23.0203 17.3333 22.6667V20C17.3333 19.6464 17.1928 19.3073 16.9428 19.0572C16.6927 18.8072 16.3536 18.6667 16 18.6667Z" fill="url(#paint2_linear)"/>
  </g>
  <defs>
    <linearGradient id="paint_linear" x1="30.1212" y1="19.7143" x2="2.64503" y2="19.547" gradientUnits="userSpaceOnUse">
      <stop stop-color="#FF7940"/>
      <stop offset="1" stop-color="#FF5DDB"/>
    </linearGradient>
    <linearGradient id="paint2_linear" x1="17.4121" y1="21.9524" x2="14.6644" y2="21.9424" gradientUnits="userSpaceOnUse">
      <stop stop-color="#FF7940"/>
      <stop offset="1" stop-color="#FF5DDB"/>
    </linearGradient>
    <clipPath id="clip0">
      <rect width="32" height="32" fill="white"/>
    </clipPath>
  </defs>
</svg>
