<svg width="18" height="10" viewBox="0 0 18 10" xmlns="http://www.w3.org/2000/svg">
  <path fill-rule="evenodd" clip-rule="evenodd" d="M18.0002 1.00025C18.0002 1.25625 17.9023 1.51225 17.7073 1.70725L9.70725 9.70725C9.31625 10.0982 8.68425 10.0982 8.29325 9.70725L0.29325 1.70725C-0.09775 1.31625 -0.09775 0.68425 0.29325 0.29325C0.68425 -0.09775 1.31625 -0.09775 1.70725 0.29325L9.00025 7.58625L16.2932 0.29325C16.6842 -0.09775 17.3162 -0.09775 17.7073 0.29325C17.9023 0.48825 18.0002 0.74425 18.0002 1.00025Z" fill="black"/>
</svg>
